…
# load additional packages needed for this tutorial
library(ir)
library(irpeatmodels)
library(ggplot2)
library(units)
#> udunits database from C:/Users/henni/AppData/Local/R/win-library/4.2/units/share/udunits/udunits2.xml
```

You can test ‘irpeat’ with sample data from the R package ‘irpeat’:

``` r
irpeat::irpeat_sample_data
#> # A tibble: 59 × 11
#>    id_90 sample_id measurement_id spectra         C      H       N     O       S
#>  * <int>     <int>          <int> <named lis> [g/g]  [g/g]   [g/g] [g/g]   [g/g]
#>  1     1         1             23 <df>        0.479 0.0562 0.00968 0.398 0.00395
#>  2     2         2             32 <df>        0.447 0.0561 0.00478 0.443 0.00008
#>  3     3         3             38 <df>        0.460 0.0560 0.00788 0.412 0.00008
#>  4     5         5             52 <df>        0.471 0.0585 0.00755 0.414 0.00008
#>  5     6         6             54 <df>        0.502 0.0550 0.0127  0.373 0.0013 
#>  6     7         7             55 <df>        0.484 0.0557 0.0091  0.392 0.0012 
#>  7     8         8             56 <df>        0.466 0.0566 0.00725 0.401 0.0008 
#>  8     9         9             57 <df>        0.490 0.0576 0.00885 0.394 0.0013 
#>  9    10        10             24 <df>        0.459 0.0560 0.00838 0.454 0      
#> 10    11        11             25 <df>        0.465 0.0566 0.00723 0.420 0      
#> # … with 49 more rows, and 2 more variables: d15N <dbl>, d13C <dbl>
```
…
`x` is identical to `irpeat_sample_data`, but contains additional
columns for the computed humification indicex (`h1_1630_1090`) and the
computed nitrogen content (`nitrogen_content_1`)

``` r
x
#> # A tibble: 59 × 18
#>    id_90 sample_id measurement_id          C        H        N        O        S
#>    <int>     <int>          <int> (err) [g/… (err) [… (err) [… (err) [… (err) […
#>  1     1         1             23 0.4790247… 0.05625… 0.00968… 0.39768… 0.00395…
#>  2     2         2             32 0.4468899… 0.0561(… 0.00478… 0.44283…  8(0)e-5
#>  3     3         3             38 0.4599222… 0.05598… 0.00788… 0.41248…  8(0)e-5
#>  4     5         5             52 0.4708597… 0.05853… 0.00755… 0.41433…  8(0)e-5
#>  5     6         6             54 0.5019724… 0.05495… 0.0127(… 0.3732(… 0.0013(…
#>  6     7         7             55 0.4844088… 0.0557(… 0.0091(… 0.39185… 0.0012(…
#>  7     8         8             56 0.4661264… 0.05655… 0.00725… 0.40095…  8(0)e-4
#>  8     9         9             57 0.4897663… 0.05765… 0.00885… 0.39395… 0.0013(…
#>  9    10        10             24 0.4594893… 0.05598… 0.00838… 0.45435…     0(0)
#> 10    11        11             25 0.4647567… 0.05663… 0.00723… 0.42003…     0(0)
#> # … with 49 more rows, and 10 more variables: d15N <dbl>, d13C <dbl>,
#> #   hi_1630_1090 <numeric>, nitrogen_content_1 (err) [g/g],
#> #   nitrogen_content_1_in_pd <logical>, bulk_density_1 (err) [g/cm^3],
#> #   bulk_density_1_in_pd <logical>, spectra <named list>,
#> #   macroporosity_1 (err) [L/L], macroporosity_1_in_pd <logical>
```
…
